…
    ## 
    ## ── Column specification ────────────────────────────────────────────────────────
    ## cols(
    ##   Activity = col_double()
    ## )

``` r
testData <-
  bind_cols(subject_test_data, y_TestSet, x_TestSet_selected)
testData
```

    ## # A tibble: 2,947 × 88
    ##    `Subject ID` Activity timeB…¹ timeB…² timeB…³ timeG…⁴ timeG…⁵ timeG…⁶ timeB…⁷
    ##           <dbl>    <dbl>   <dbl>   <dbl>   <dbl>   <dbl>   <dbl>   <dbl>   <dbl>
    ##  1            2        5   0.257 -0.0233 -0.0147   0.936  -0.283   0.115  0.0720
    ##  2            2        5   0.286 -0.0132 -0.119    0.927  -0.289   0.153  0.0702
    ##  3            2        5   0.275 -0.0261 -0.118    0.930  -0.288   0.146  0.0694
    ##  4            2        5   0.270 -0.0326 -0.118    0.929  -0.293   0.143  0.0749
    ##  5            2        5   0.275 -0.0278 -0.130    0.927  -0.303   0.138  0.0784
    ##  6            2        5   0.279 -0.0186 -0.114    0.926  -0.309   0.131  0.0760
    ##  7            2        5   0.280 -0.0183 -0.104    0.926  -0.310   0.129  0.0741
    ##  8            2        5   0.275 -0.0250 -0.117    0.927  -0.311   0.130  0.0762
    ##  9            2        5   0.273 -0.0210 -0.114    0.926  -0.316   0.126  0.0792
    ## 10            2        5   0.276 -0.0104 -0.0998   0.924  -0.318   0.125  0.0771
    ## # … with 2,937 more rows, 79 more variables:
    ## #   `timeBodyAccelerationJerk mean  -Y` <dbl>,
    ## #   `timeBodyAccelerationJerk mean  -Z` <dbl>, `timeBodyGyro mean  -X` <dbl>,
    ## #   `timeBodyGyro mean  -Y` <dbl>, `timeBodyGyro mean  -Z` <dbl>,
    ## #   `timeBodyGyroJerk mean  -X` <dbl>, `timeBodyGyroJerk mean  -Y` <dbl>,
    ## #   `timeBodyGyroJerk mean  -Z` <dbl>, `timeBodyAccelerationMag mean` <dbl>,
    ## #   `timeGravityAccelerationMag mean` <dbl>, …
…
    ## 
    ## ── Column specification ────────────────────────────────────────────────────────
    ## cols(
    ##   Activity = col_double()
    ## )

``` r
trainData <-
  bind_cols(subject_train_data, y_TrainSet, x_TrainSet_selected)
trainData
```

    ## # A tibble: 7,352 × 88
    ##    `Subject ID` Activ…¹ timeB…² timeBo…³ timeB…⁴ timeG…⁵ timeG…⁶ timeG…⁷ timeB…⁸
    ##           <dbl>   <dbl>   <dbl>    <dbl>   <dbl>   <dbl>   <dbl>   <dbl>   <dbl>
    ##  1            1       5   0.289 -0.0203   -0.133   0.963  -0.141  0.115   0.0780
    ##  2            1       5   0.278 -0.0164   -0.124   0.967  -0.142  0.109   0.0740
    ##  3            1       5   0.280 -0.0195   -0.113   0.967  -0.142  0.102   0.0736
    ##  4            1       5   0.279 -0.0262   -0.123   0.968  -0.144  0.0999  0.0773
    ##  5            1       5   0.277 -0.0166   -0.115   0.968  -0.149  0.0945  0.0734
    ##  6            1       5   0.277 -0.0101   -0.105   0.968  -0.148  0.0919  0.0779
    ##  7            1       5   0.279 -0.0196   -0.110   0.968  -0.144  0.0931  0.0822
    ##  8            1       5   0.277 -0.0305   -0.125   0.968  -0.147  0.0917  0.0724
    ##  9            1       5   0.277 -0.0218   -0.121   0.968  -0.154  0.0851  0.0753
    ## 10            1       5   0.281 -0.00996  -0.106   0.968  -0.156  0.0809  0.0764
    ## # … with 7,342 more rows, 79 more variables:
    ## #   `timeBodyAccelerationJerk mean  -Y` <dbl>,
    ## #   `timeBodyAccelerationJerk mean  -Z` <dbl>, `timeBodyGyro mean  -X` <dbl>,
    ## #   `timeBodyGyro mean  -Y` <dbl>, `timeBodyGyro mean  -Z` <dbl>,
    ## #   `timeBodyGyroJerk mean  -X` <dbl>, `timeBodyGyroJerk mean  -Y` <dbl>,
    ## #   `timeBodyGyroJerk mean  -Z` <dbl>, `timeBodyAccelerationMag mean` <dbl>,
    ## #   `timeGravityAccelerationMag mean` <dbl>, …
…
  mutate(
    Activity =
      case_when(
        Activity == 1 ~ "Walking",
        Activity == 2 ~ "Walking Upstairs",
        Activity == 3 ~ "Walking Downstairs",
        Activity == 4 ~ "Sitting",
        Activity == 5 ~ "Standing",
        Activity == 6 ~ "Laying"
      )
  )
combinedData
```

    ## # A tibble: 10,299 × 88
    ##    `Subject ID` Activity timeB…¹ timeB…² timeB…³ timeG…⁴ timeG…⁵ timeG…⁶ timeB…⁷
    ##           <dbl> <chr>      <dbl>   <dbl>   <dbl>   <dbl>   <dbl>   <dbl>   <dbl>
    ##  1            2 Standing   0.257 -0.0233 -0.0147   0.936  -0.283   0.115  0.0720
    ##  2            2 Standing   0.286 -0.0132 -0.119    0.927  -0.289   0.153  0.0702
    ##  3            2 Standing   0.275 -0.0261 -0.118    0.930  -0.288   0.146  0.0694
    ##  4            2 Standing   0.270 -0.0326 -0.118    0.929  -0.293   0.143  0.0749
    ##  5            2 Standing   0.275 -0.0278 -0.130    0.927  -0.303   0.138  0.0784
    ##  6            2 Standing   0.279 -0.0186 -0.114    0.926  -0.309   0.131  0.0760
    ##  7            2 Standing   0.280 -0.0183 -0.104    0.926  -0.310   0.129  0.0741
    ##  8            2 Standing   0.275 -0.0250 -0.117    0.927  -0.311   0.130  0.0762
    ##  9            2 Standing   0.273 -0.0210 -0.114    0.926  -0.316   0.126  0.0792
    ## 10            2 Standing   0.276 -0.0104 -0.0998   0.924  -0.318   0.125  0.0771
    ## # … with 10,289 more rows, 79 more variables:
    ## #   `timeBodyAccelerationJerk mean  -Y` <dbl>,
    ## #   `timeBodyAccelerationJerk mean  -Z` <dbl>, `timeBodyGyro mean  -X` <dbl>,
    ## #   `timeBodyGyro mean  -Y` <dbl>, `timeBodyGyro mean  -Z` <dbl>,
    ## #   `timeBodyGyroJerk mean  -X` <dbl>, `timeBodyGyroJerk mean  -Y` <dbl>,
    ## #   `timeBodyGyroJerk mean  -Z` <dbl>, `timeBodyAccelerationMag mean` <dbl>,
    ## #   `timeGravityAccelerationMag mean` <dbl>, …
…
